…
MetAlyzer::aggregated_data(metalyzer_se)
#> # A tibble: 20,380 × 5
#> # Groups:   Metabolite [1,019]
#>    ID    Metabolite Class          Concentration Status
#>    <fct> <fct>      <fct>                  <dbl> <fct> 
#>  1 14    C0         Acylcarnitines          16.4 Valid 
#>  2 15    C0         Acylcarnitines          15   Valid 
#>  3 16    C0         Acylcarnitines          14.9 Valid 
#>  4 17    C0         Acylcarnitines          16.4 Valid 
#>  5 18    C0         Acylcarnitines          16.2 Valid 
#>  6 19    C0         Acylcarnitines          15.9 Valid 
#>  7 20    C0         Acylcarnitines          15.3 Valid 
#>  8 21    C0         Acylcarnitines          16.2 Valid 
#>  9 22    C0         Acylcarnitines          15.2 Valid 
#> 10 23    C0         Acylcarnitines          16.3 Valid 
#> # ℹ 20,370 more rows
```
