…
## Value

list with ggplot object and table of node summaries

## Examples

``` r
log2fc_df <- readRDS(MetAlyzer::toy_diffres())
network <- MetAlyzer::plot_network(log2fc_df, q_value = 0.05)
#> Warning: Removing 4 invalid nodes.
network$Plot

network$Table
#> # A tibble: 144 × 13
#>    Label       collapsed_count Pathway Metabolites x     y     Shape Class pval 
#>    <chr>                 <int> <chr>   <chr>       <chr> <chr> <chr> <chr> <chr>
#>  1 1-Methyl-h…               1 Glutam… 1-Met-His   180   70    o     Amin… 0.00…
#>  2 2-HG                      1 NA      NA          165   59.4  o     NA    NA   
#>  3 2-OG                      1 TCA Cy… NA          150.6 59.4  o     NA    NA   
#>  4 3-Hydroxyg…               1 Lysine… OH-GlutAcid 185   90    o     Carb… 3.38…
#>  5 3-Indoleac…               1 Indole… 3-IAA       15    60    o     Indo… 3.81…
#>  6 3-Indolepr…               1 Indole… 3-IPA       15    70    o     Indo… 7.09…
#>  7 3-Methyl-h…               1 Glutam… 3-Met-His   195   40    o     Amin… 8.86…
#>  8 3-OH-butyr…               1 NA      NA          130   95    o     NA    NA   
#>  9 3-PG                      1 NA      NA          140   130   o     NA    NA   
#> 10 5-Aminoval…               1 NA      5-AVA       155   95    o     Amin… 8.82…
#> # ℹ 134 more rows
#> # ℹ 4 more variables: node_log2FC <chr>, node_qval <chr>, values <chr>,
#> #   stat <chr>
```
